…
# 100 two-children families. 1: Child is a boy. 0: Girl.
df <- data_frame(
  Family = seq_along(birth1),
  Child1 = birth1,
  Child2 = birth2)
df
#> # A tibble: 100 x 3
#>    Family Child1 Child2
#>     <int>  <dbl>  <dbl>
#> 1       1      1      0
#> 2       2      0      1
#> 3       3      0      0
#> 4       4      0      1
#> 5       5      1      0
#> 6       6      1      1
#> 7       7      0      1
#> 8       8      1      1
#> 9       9      0      0
#> 10     10      1      0
#> # ... with 90 more rows

# Long format better reflects nesting of children in families
df_long <- df %>% 
  rename(`1` = Child1, `2` = Child2) %>% 
  gather(Child, Gender, -Family) %>% 
  readr::type_convert() %>% 
  arrange(Family, Child)
df_long
#> # A tibble: 200 x 3
#>    Family Child Gender
#>     <int> <int>  <dbl>
#> 1       1     1      1
#> 2       1     2      0
#> 3       2     1      0
#> 4       2     2      1
#> 5       3     1      0
#> 6       3     2      0
#> 7       4     1      0
#> 8       4     2      1
#> 9       5     1      1
#> 10      5     2      0
#> # ... with 190 more rows
```
…
